{
  "project_info": {
    "project_number": "181436959165",
    "firebase_url": "https://reacttestaritex.firebaseio.com",
    "project_id": "reacttestaritex",
    "storage_bucket": "reacttestaritex.appspot.com"
  },
  "client": [
    {
      "client_info": {
        "mobilesdk_app_id": "1:181436959165:android:8ca6e2cf6417b457",
        "android_client_info": {
          "package_name": "com.aritex"
        }
      },
      "oauth_client": [
        {
          "client_id": "181436959165-3qpsq59o7u1kindmv6cco3h1h4qqpmli.apps.googleusercontent.com",
          "client_type": 3
        }
      ],
      "api_key": [
        {
          "current_key": "AIzaSyCOvHFWoZEFyK4_1TkgbYD3IVG-v4J1iAY"
        }
      ],
      "services": {
        "analytics_service": {
          "status": 1
        },
        "appinvite_service": {
          "status": 1,
          "other_platform_oauth_client": []
        },
        "ads_service": {
          "status": 2
        }
      }
    }
  ],
  "configuration_version": "1"
}